<?xml version="1.0" encoding="utf-8"?>
<!-- Generator: Adobe Illustrator 16.0.4, SVG Export Plug-In . SVG Version: 6.00 Build 0)  -->
<!DOCTYPE svg PUBLIC "-//W3C//DTD SVG 1.1//EN" "http://www.w3.org/Graphics/SVG/1.1/DTD/svg11.dtd">
<svg version="1.1" id="Layer_1" xmlns="http://www.w3.org/2000/svg" xmlns:xlink="http://www.w3.org/1999/xlink" x="0px" y="0px"
	 width="22px" height="20px" viewBox="0 0 22 20" enable-background="new 0 0 22 20" xml:space="preserve">
<polygon fill="#FFFFFF" points="16.17,12.849 9.17,12.849 9.17,5.849 11.17,5.849 11.17,10.849 16.17,10.849 "/>
<path fill="#FFFFFF" d="M12.17,1.697V0.078L7.803,2.599L12.17,5.12V3.715c3.489,0.486,6.006,3.476,6.006,7.065
	c0,3.926-3.306,7.142-7.231,7.142s-7.12-3.073-7.12-7.073h-2c0,5,4.091,9.073,9.12,9.073c5.028,0,9.231-4.114,9.231-9.142
	C20.176,6.092,16.693,2.203,12.17,1.697z"/>
</svg>
